﻿{
  "rows": [
    {
      "id": "classic",
      "name": "Classic Ad",
      "price": 269.99
    },
    {
      "id": "standout",
      "name": "Standout Ad",
      "price": 322.99
    },
    {
      "id": "premium",
      "name": "Premium Ad",
      "price": 394.99
    }
  ] 
}
